{
  "peliculas": [
    {
      "titulo": "Era de Ultrón",
      "reparto": "Robert Downey Jr., Scarlett Johansson, Chris Evans, Chris Hemsworth, Mark Ruffalo, Jeremy Renner, Tom Hiddleston, Samuel L. Jackson y Stan Lee, entre otros",
      "sinopsis": "Los Vengadores se reúnen de nuevo y juntan sus fuerzas con las de los recién llegados Quicksilver y Bruja Escarlata para luchar contra un robot maquiavélico llamado Ultrón, el cual Tony Stark creó con el fin de defender la paz, pero resultó defectuoso y ahora pretende exterminar a toda la humanidad.",
      "director": "Joss Whedon"
    },
    {
      "titulo": "Endgame",
      "reparto": "Robert Downey Jr., Scarlett Johansson, Chris Evans, Chris Hemsworth, Mark Ruffalo, Jeremy Renner, Tom Hiddleston, Brie Larson, Paul Rudd, Chadwick Boseman, Stan Lee, entre otros",
      "sinopsis": "Los Vengadores restantes deben encontrar una manera de recuperar a sus aliados para un enfrentamiento épico con Thanos, el malvado que diezmó el planeta y el universo.",
      "director": "Joe Russo, Anthony Russo"
    },
    {
        "titulo": "Infinity war",
        "reparto": "Robert Downey Jr., Scarlett Johansson, Chris Evans, Chris Hemsworth, Mark Ruffalo, Jeremy Renner, Tom Hiddleston, Samuel L. Jackson y Stan Lee",
        "sinopsis": "Los superhéroes se alían para vencer al poderoso Thanos, el peor enemigo al que se han enfrentado. Si Thanos logra reunir las seis gemas del infinito: poder, tiempo, alma, realidad, mente y espacio, nadie podrá detenerlo.",
        "director": "Joe Russo, Anthony Russo"
    }
  ]
}
